<?xml version="1.0" encoding="UTF-8" standalone="no"?>
<!-- Generator: Adobe Illustrator 16.0.0, SVG Export Plug-In . SVG Version: 6.00 Build 0)  -->

<svg
   xmlns:dc="http://purl.org/dc/elements/1.1/"
   xmlns:cc="http://creativecommons.org/ns#"
   xmlns:rdf="http://www.w3.org/1999/02/22-rdf-syntax-ns#"
   xmlns:svg="http://www.w3.org/2000/svg"
   xmlns="http://www.w3.org/2000/svg"
   xmlns:sodipodi="http://sodipodi.sourceforge.net/DTD/sodipodi-0.dtd"
   xmlns:inkscape="http://www.inkscape.org/namespaces/inkscape"
   version="1.1"
   id="Capa_1"
   x="0px"
   y="0px"
   width="533.333px"
   height="533.333px"
   viewBox="0 0 533.333 533.333"
   style="enable-background:new 0 0 533.333 533.333;"
   xml:space="preserve"
   sodipodi:docname="heal.svg"
   inkscape:version="0.92.1 r15371"><metadata
     id="metadata5387"><rdf:RDF><cc:Work
         rdf:about=""><dc:format>image/svg+xml</dc:format><dc:type
           rdf:resource="http://purl.org/dc/dcmitype/StillImage" /></cc:Work></rdf:RDF></metadata><defs
     id="defs5385" /><sodipodi:namedview
     pagecolor="#ffffff"
     bordercolor="#666666"
     borderopacity="1"
     objecttolerance="10"
     gridtolerance="10"
     guidetolerance="10"
     inkscape:pageopacity="0"
     inkscape:pageshadow="2"
     inkscape:window-width="1090"
     inkscape:window-height="480"
     id="namedview5383"
     showgrid="false"
     inkscape:zoom="1.7700011"
     inkscape:cx="419.13687"
     inkscape:cy="208.85215"
     inkscape:window-x="246"
     inkscape:window-y="414"
     inkscape:window-maximized="0"
     inkscape:current-layer="g5350" /><g
     id="g5350"
     style="fill:#00ff00;stroke:#000000;stroke-opacity:1;stroke-width:2;stroke-miterlimit:4;stroke-dasharray:none"><path
       d="M 308.5671,276.79382 H 290.17227 V 258.3991 c 0,-0.92359 -0.74869,-1.67229 -1.67218,-1.67229 h -10.0335 c -0.92358,0 -1.67228,0.7487 -1.67228,1.67229 v 18.39472 h -18.39472 c -0.92359,0 -1.67229,0.7487 -1.67229,1.67228 v 10.0335 c 0,0.92349 0.7487,1.67218 1.67229,1.67218 h 18.39472 v 18.39483 c 0,0.92348 0.7487,1.67218 1.67228,1.67218 h 10.0335 c 0.92349,0 1.67229,-0.7487 1.67229,-1.67218 v -18.39483 h 18.39472 c 0.92348,0 1.67228,-0.74869 1.67228,-1.67218 v -10.0335 c -10e-5,-0.92358 -0.7488,-1.67228 -1.67228,-1.67228 z"
       id="path5348"
       style="fill:#00ff00;stroke:#000000;stroke-width:0.20067005;stroke-miterlimit:4;stroke-dasharray:none;stroke-opacity:1"
       inkscape:connector-curvature="0" /></g><g
     id="g5352" /><g
     id="g5354" /><g
     id="g5356" /><g
     id="g5358" /><g
     id="g5360" /><g
     id="g5362" /><g
     id="g5364" /><g
     id="g5366" /><g
     id="g5368" /><g
     id="g5370" /><g
     id="g5372" /><g
     id="g5374" /><g
     id="g5376" /><g
     id="g5378" /><g
     id="g5380" /></svg>